,Unnamed: 0,Street_One,Street_Two,latitude,longitude
0,0,MISSION ST,ITALY AVE,37.718477899999996,-122.43953559999999
1,1,MISSION ST,NEW MONTGOMERY ST,37.7874561,-122.40052340000001
2,2,MISSION ST,01ST ST,37.7897755,-122.39759129999999
3,3,MISSION ST,20TH ST,37.7586404,-122.4190771
4,4,MISSION ST,FREMONT ST,37.790454700000005,-122.39672639999999
5,5,MISSION ST,13TH ST,37.7699536,-122.4199623
6,6,MISSION ST,ERIE ST,37.7690631,-122.4200723
7,7,MISSION ST,BEALE ST,37.7911592,-122.39582620000002
8,8,MISSION ST,FAIR AVE,37.745603499999994,-122.4198975
9,9,MISSION ST,SAINT MARYS AVE,37.73395319999999,-122.42614209999999
10,10,MISSION ST,SENECA AVE,37.7176754,-122.44014920000001
11,11,MISSION ST,ANTHONY ST,37.7883744,-122.3993622
12,12,MISSION ST,JESSIE EAST ST,37.7830904,-122.40603780000001
13,13,MISSION ST,SILVER AVE,37.7287485,-122.43131979999998
14,14,MISSION ST,MOUNT VERNON AVE,37.7146065,-122.4426697
15,15,MISSION ST,30TH ST,37.7423869,-122.4219821
16,16,MISSION ST,MAIN ST,37.7918484,-122.3949553
17,17,MISSION ST,TRUMBULL ST,37.730758200000004,-122.4292419
18,18,MISSION ST,15TH ST,37.7666804,-122.41985359999998
19,19,MISSION ST,KINGSTON ST,37.741750599999996,-122.42239170000002
20,20,MISSION ST,TINGLEY ST,37.7282519,-122.43180600000001
21,21,MISSION ST,THERESA ST,37.7277166,-122.43240379999999
22,22,MISSION ST,PARK ST,37.7367496,-122.42424840000001
23,23,MISSION ST,OLIVER ST,37.7095562,-122.4505193
24,24,MISSION ST,STEUART ST,37.79323170000001,-122.3932047
25,25,MISSION ST,HURON AVE,37.708305200000005,-122.4541936
26,26,MISSION ST,SYCAMORE ST,37.762713899999994,-122.4194705
27,27,MISSION ST,02ND ST,37.788017100000005,-122.399817
28,28,MISSION ST,MINT ST,37.782211700000005,-122.4071655
29,29,MISSION ST,GENEVA AVE,37.716407399999994,-122.44108659999999
30,30,MISSION ST,CORTLAND AVE,37.7410375,-122.4228531
31,31,MISSION ST,22ND ST,37.755444700000005,-122.41877609999999
32,32,MISSION ST,06TH ST,37.7809745,-122.4087337
33,33,MISSION ST,PRECITA AVE,37.7467814,-122.41914170000001
34,34,MISSION ST,17TH ST,37.7634446,-122.4195422
35,35,MISSION ST,CASTLE MANOR AVE,37.7292307,-122.4308447
36,36,MISSION ST,ALLISON ST,37.7146065,-122.4426697
37,37,MISSION ST,26TH ST,37.749044,-122.4181659
38,38,MISSION ST,VIRGINIA AVE,37.743139,-122.4214971
39,39,MISSION ST,COTTER ST,37.7271822,-122.43293529999998
40,40,MISSION ST,WHIPPLE AVE,37.7107534,-122.4477074
41,41,MISSION ST,08TH ST,37.777463,-122.41317620000001
42,42,MISSION ST,PLUM ST,37.77101,-122.4196634
43,43,MISSION ST,THE EMBARCADERO,37.7938433,-122.3924419
44,44,MISSION ST,19TH ST,37.760239500000004,-122.4192312
45,45,MISSION ST,APPLETON AVE,37.7388435,-122.4239791
46,46,MISSION ST,OCEAN AVE,37.723902,-122.43540220000001
47,47,MISSION ST,GODEUS ST,37.742831200000005,-122.42169540000002
48,48,MISSION ST,POPE ST,37.7154464,-122.4418336
49,49,MISSION ST,FARRAGUT AVE,37.709959000000005,-122.449354
50,50,MISSION ST,11TH ST,37.7743325,-122.4171372
51,51,MISSION ST,EUGENIA AVE,37.7422074,-122.42209720000001
52,52,MISSION ST,04TH ST,37.784515999999996,-122.40429420000001
53,53,MISSION ST,FRANCE AVE,37.7200367,-122.43835049999998
54,54,MISSION ST,LASKIE ST,37.7767134,-122.4141239
55,55,MISSION ST,29TH ST,37.744038,-122.42091509999999
56,56,MISSION ST,RUSSIA AVE,37.7215808,-122.43717659999999
57,57,MISSION ST,ONONDAGA AVE,37.721169599999996,-122.43748899999999
58,58,MISSION ST,ANNIE ST,37.7868392,-122.40127849999999
59,59,MISSION ST,21ST ST,37.757045,-122.418915
60,60,MISSION ST,CLARION ALY,37.763063700000004,-122.4195044
61,61,MISSION ST,NAGLEE AVE,37.711605600000006,-122.44611499999999
62,62,MISSION ST,ADMIRAL AVE,37.729883,-122.4302422
63,63,MISSION ST,RICHLAND AVE,37.7360862,-122.42447320000001
64,64,MISSION ST,LOWELL ST,37.7114504,-122.4464132
65,65,MISSION ST,SAN JUAN AVE,37.724027899999996,-122.43532959999999
66,66,MISSION ST,14TH ST,37.768284200000004,-122.4200074
67,67,MISSION ST,CONCORD ST,37.713952899999995,-122.4433752
68,68,MISSION ST,HIGHLAND AVE,37.7373612,-122.42404840000002
69,69,MISSION ST,10TH ST,37.7752838,-122.41593710000001
70,70,MISSION ST,LAWRENCE AVE,37.7094211,-122.45091299999999
71,71,MISSION ST,AMAZON AVE,37.717274100000004,-122.44045279999999
72,72,MISSION ST,ECKER ST,37.789179,-122.3983379
73,73,MISSION ST,SHAW ALY,37.7889865,-122.3985861
74,74,MISSION ST,AVALON AVE,37.727656,-122.43247269999999
75,75,MISSION ST,FRANCIS ST,37.7265972,-122.43338510000001
76,76,MISSION ST,LAFAYETTE ST,37.7734886,-122.4180521
77,77,MISSION ST,JESSIE WEST ST,37.780975,-122.40873
78,78,MISSION ST,COLLEGE AVE,37.7352463,-122.4248608
79,79,MISSION ST,03RD ST,37.786269700000005,-122.40207759999998
80,80,MISSION ST,HARRINGTON ST,37.7251752,-122.4344615
81,81,MISSION ST,COLLEGE TER,37.7342953,-122.42581299999999
82,82,MISSION ST,VALENCIA ST,37.745603499999994,-122.4198975
83,83,MISSION ST,NEY ST,37.730009700000004,-122.43011609999998
84,84,MISSION ST,12TH ST,37.7730672,-122.41872009999999
85,85,MISSION ST,25TH ST,37.7506482,-122.4183159
86,86,MISSION ST,MARY ST,37.7821257,-122.40727279999999
87,87,MISSION ST,SPEAR ST,37.7925297,-122.3940905
88,88,MISSION ST,ROLPH ST,37.7157674,-122.4415835
89,89,MISSION ST,07TH ST,37.7385782,-122.423994
90,90,MISSION ST,NORTON ST,37.7245926,-122.4349007
91,91,MISSION ST,RUTH ST,37.7230498,-122.43606809999999
92,92,MISSION ST,BRAZIL AVE,37.72468789999999,-122.4348243
93,93,MISSION ST,GUTTENBERG ST,37.7127826,-122.44460159999998
94,94,MISSION ST,23RD ST,37.753845500000004,-122.41861940000001
95,95,MISSION ST,RANDALL ST,37.739779299999995,-122.42367549999999
96,96,MISSION ST,PERSIA AVE,37.723152899999995,-122.43600179999999
97,97,MISSION ST,16TH ST,37.7650566,-122.419698
98,98,MISSION ST,YERBA BUENA LN,37.785138200000006,-122.40350579999999
99,99,MISSION ST,LAURA ST,37.709688,-122.4501243
100,100,MISSION ST,18TH ST,37.7618426,-122.41938870000001
101,101,MISSION ST,LEO ST,37.722463700000006,-122.4365095
102,102,MISSION ST,POWERS AVE,37.746185499999996,-122.41952409999999
103,103,MISSION ST,SANTA ROSA AVE,37.7257734,-122.4340038
104,104,MISSION ST,FLORENTINE AVE,37.7133857,-122.4439655
105,105,MISSION ST,FOOTE AVE,37.7126339,-122.44476999999999
106,106,MISSION ST,BOSWORTH ST,37.733684600000004,-122.426396
107,107,MISSION ST,EXCELSIOR AVE,37.72639,-122.43366
108,108,MISSION ST,WASHBURN ST,37.7759,-122.41515290000001
109,109,MISSION ST,MORSE ST,37.7104244,-122.4483197
110,110,MISSION ST,ANGELOS ALY,37.7385782,-122.423994
111,111,MISSION ST,BROOK ST,37.740648900000004,-122.42310520000001
112,112,MISSION ST,09TH ST,37.7762211,-122.4147406
113,113,MISSION ST,OTTAWA AVE,37.71360479999999,-122.44373590000002
114,114,MISSION ST,NIAGARA AVE,37.7155866,-122.44172749999998
115,115,MISSION ST,ACTON ST,37.7087851,-122.45276940000001
116,116,MISSION ST,05TH ST,37.7827442,-122.40649909999999
117,117,MISSION ST,24TH ST,37.7522458,-122.4184622
118,118,MISSION ST,GRACE ST,37.7756099,-122.4155178
